{
	"pages": [ //pages数组中第一项表示应用启动页，参考：https://uniapp.dcloud.io/collocation/pages
		{
			"path": "pages/index/index",
			"style": {
				"navigationBarTitleText": "夸夸其谈"
			}
		}, {
			"path": "pages/index/video/video",
			"style": {
				"navigationBarTitleText": "视频页面"
			}
		}, {
			"path": "pages/index/article/article",
			"style": {
				"navigationBarTitleText": ""
			}
		}, {
			"path": "pages/index/vip/vip",
			"style": {
				"navigationBarTitleText": "VIP中心"
			}
		}, {
			"path": "pages/index/user/user",
			"style": {
				"navigationBarTitleText": "个人中心"
			}
		}, {
			"path": "pages/index/user/buy/buy",
			"style": {
				"navigationBarTitleText": "VIP个人中心"
			}
		}, {
			"path": "pages/index/tsk/tsk",
			"style": {
				"navigationBarTitleText": "任务墙",
				"navigationBarBackgroundColor": "#171a23",
				"navigationBarTextStyle": "white"
			}
		}, {
			"path": "pages/index/tsk/taskPage/taskPage",
			"style": {
				"navigationBarTitleText": "任务编辑"
			}
		}, {
			"path": "pages/index/tsk/otherUser/otherUser",
			"style": {
				"navigationBarTitleText": "任务详情"
			}
		}
	],
	"globalStyle": {
		"navigationBarTextStyle": "black",
		"navigationBarBackgroundColor": "#F8F8F8",
		"backgroundColor": "#F8F8F8"
	},
	
	"tabBar": {
        "color": "#cdcdcd",
        "selectedColor": "#000",
        "borderStyle": "white",
        "backgroundColor": "#fff",
        "list": [{
                "pagePath": "pages/index/index",
                "iconPath": "/static/image/home.png",
                "selectedIconPath": "/static/image/home(1).png",
                "text": "首页"
            }, {
                "pagePath": "pages/index/vip/vip",
                "iconPath": "/static/image/vip(1).png",
                "selectedIconPath": "static/image/vip.png",
				
                "text": "VIP"
            },
            {
                "pagePath": "pages/index/tsk/tsk",
                "iconPath": "static/image/task.png",
                "selectedIconPath": "static/image/task(1).png",
				
                "text": "任务墙"
            }, {
                "pagePath": "pages/index/user/user",
                "iconPath": "static/image/user.png",
                "selectedIconPath": "static/image/user(1).png",
                "text": "我的"
            }
        ]
    },
	
	"condition": { //模式配置，仅开发期间生效
        "current": 0, //当前激活的模式（list 的索引项）
        "list": [{
                "name": "首页", //模式名称
                "path": "pages/index/index", //启动页面，必选
                "query": "" //启动参数，在页面的onLoad函数里面得到。uid=100&t=1535987051
            },
            {
                "name": "VIP", //模式名称
                "path": "pages/index/vip/vip", //启动页面，必选
                "query": "" //启动参数，在页面的onLoad函数里面得到。
            },
            {
                "name": "任务墙", //模式名称
                "path": "pages/index/tsk/tsk", //启动页面，必选
                "query": "" //启动参数，在页面的onLoad函数里面得到。uid=100&t=1535987051
            },
            {
                "name": "我的", //模式名称
                "path": "pages/index/user/user", //启动页面，必选
                "query": "" //启动参数，在页面的onLoad函数里面得到。
            }
        ]
    }
	
}
